{
	"info": {
		"_postman_id": "83c0f2a0-4f33-494e-b589-b499d7978124",
		"name": "s32",
		"schema": "https://schema.getpostman.com/json/collection/v2.1.0/collection.json",
		"_exporter_id": "22132498"
	},
	"item": [
		{
			"name": "activity",
			"item": [
				{
					"name": "book system request",
					"request": {
						"method": "GET",
						"header": [],
						"url": {
							"raw": "http://localhost:4000/",
							"protocol": "http",
							"host": [
								"localhost"
							],
							"port": "4000",
							"path": [
								""
							]
						}
					},
					"response": []
				},
				{
					"name": "profile request",
					"request": {
						"method": "GET",
						"header": [],
						"url": {
							"raw": "http://localhost:4000/profile",
							"protocol": "http",
							"host": [
								"localhost"
							],
							"port": "4000",
							"path": [
								"profile"
							]
						}
					},
					"response": []
				},
				{
					"name": "courses request",
					"request": {
						"method": "GET",
						"header": [],
						"url": {
							"raw": "http://localhost:4000/courses",
							"protocol": "http",
							"host": [
								"localhost"
							],
							"port": "4000",
							"path": [
								"courses"
							]
						}
					},
					"response": []
				},
				{
					"name": "addcourse request",
					"request": {
						"method": "POST",
						"header": [],
						"url": {
							"raw": "http://localhost:4000/addcourse",
							"protocol": "http",
							"host": [
								"localhost"
							],
							"port": "4000",
							"path": [
								"addcourse"
							]
						}
					},
					"response": []
				},
				{
					"name": "updatecourse request",
					"request": {
						"method": "PUT",
						"header": [],
						"url": {
							"raw": "http://localhost:4000/updatecourse",
							"protocol": "http",
							"host": [
								"localhost"
							],
							"port": "4000",
							"path": [
								"updatecourse"
							]
						}
					},
					"response": []
				},
				{
					"name": "archivecourses request",
					"request": {
						"method": "DELETE",
						"header": [],
						"url": {
							"raw": "http://localhost:4000/archivecourses",
							"protocol": "http",
							"host": [
								"localhost"
							],
							"port": "4000",
							"path": [
								"archivecourses"
							]
						}
					},
					"response": []
				}
			]
		},
		{
			"name": "d1",
			"item": [
				{
					"name": "get request",
					"request": {
						"method": "GET",
						"header": [],
						"url": {
							"raw": "http://localhost:4000/users",
							"protocol": "http",
							"host": [
								"localhost"
							],
							"port": "4000",
							"path": [
								"users"
							]
						}
					},
					"response": []
				},
				{
					"name": "post request",
					"request": {
						"method": "POST",
						"header": [],
						"body": {
							"mode": "raw",
							"raw": "{\r\n    \"name\": \"John\",\r\n    \"email\": \"john@mail.com\"\r\n}",
							"options": {
								"raw": {
									"language": "json"
								}
							}
						},
						"url": {
							"raw": "http://localhost:4000/users",
							"protocol": "http",
							"host": [
								"localhost"
							],
							"port": "4000",
							"path": [
								"users"
							]
						}
					},
					"response": []
				}
			]
		}
	]
}